{
    "auth"        : "zef:raku-land",
    "description" : "Browser automation framework",
    "license"     : "MIT",
    "name"        : "WebDriver",
    "perl"        : "6.c",
    "provides"    : { "WebDriver" : "lib/WebDriver.rakumod" },
    "source-url"  : "https://gitlab.com/raku-land/webdriver",
    "tags"        : [ "automation", "client", "web" ],
    "version"     : "0.3",
    "depends" : {
        "runtime" : {
            "requires"   : [ "HTTP::Tiny" ],
            "recommends" : [ "MIME::Base64" ]
        }
    }
}
